<?xml version="1.0" encoding="utf-8"?>
<svg xmlns="http://www.w3.org/2000/svg" width="1" height="57" viewBox="0 0 1 57">
  <line id="Linha_62" data-name="Linha 62" y1="57" transform="translate(0.5)" fill="none" stroke="#f36a10" stroke-width="1"/>
</svg>
